\relax 
\providecommand\hyper@newdestlabel[2]{}
\providecommand\HyperFirstAtBeginDocument{\AtBeginDocument}
\HyperFirstAtBeginDocument{\ifx\hyper@anchor\@undefined
\global\let\oldcontentsline\contentsline
\gdef\contentsline#1#2#3#4{\oldcontentsline{#1}{#2}{#3}}
\global\let\oldnewlabel\newlabel
\gdef\newlabel#1#2{\newlabelxx{#1}#2}
\gdef\newlabelxx#1#2#3#4#5#6{\oldnewlabel{#1}{{#2}{#3}}}
\AtEndDocument{\ifx\hyper@anchor\@undefined
\let\contentsline\oldcontentsline
\let\newlabel\oldnewlabel
\fi}
\fi}
\global\let\hyper@last\relax 
\gdef\HyperFirstAtBeginDocument#1{#1}
\providecommand\HyField@AuxAddToFields[1]{}
\providecommand\HyField@AuxAddToCoFields[2]{}
\@writefile{toc}{\beamer@endinputifotherversion {3.24pt}}
\@writefile{nav}{\beamer@endinputifotherversion {3.24pt}}
\@writefile{nav}{\headcommand {\slideentry {0}{0}{1}{1/1}{}{0}}}
\@writefile{nav}{\headcommand {\beamer@framepages {1}{1}}}
\@writefile{nav}{\headcommand {\slideentry {0}{0}{2}{2/2}{}{0}}}
\@writefile{nav}{\headcommand {\beamer@framepages {2}{2}}}
\@writefile{toc}{\beamer@sectionintoc {1}{Introduction}{3}{0}{1}}
\@writefile{nav}{\headcommand {\sectionentry {1}{Introduction}{3}{Introduction}{0}}}
\@writefile{nav}{\headcommand {\beamer@sectionpages {1}{2}}}
\@writefile{nav}{\headcommand {\beamer@subsectionpages {1}{2}}}
\@writefile{nav}{\headcommand {\slideentry {1}{0}{3}{3/10}{}{0}}}
\@writefile{nav}{\headcommand {\beamer@framepages {3}{10}}}
\@writefile{nav}{\headcommand {\slideentry {1}{0}{4}{11/19}{}{0}}}
\@writefile{nav}{\headcommand {\beamer@framepages {11}{19}}}
\@writefile{toc}{\beamer@sectionintoc {2}{Proposed Method}{20}{0}{2}}
\@writefile{nav}{\headcommand {\sectionentry {2}{Proposed Method}{20}{Proposed Method}{0}}}
\@writefile{nav}{\headcommand {\beamer@sectionpages {3}{19}}}
\@writefile{nav}{\headcommand {\beamer@subsectionpages {3}{19}}}
\@writefile{toc}{\beamer@subsectionintoc {2}{1}{Watermark embedding}{20}{0}{2}}
\@writefile{nav}{\headcommand {\beamer@subsectionentry {0}{2}{1}{20}{Watermark embedding}}\headcommand {\beamer@subsectionpages {20}{19}}}
\@writefile{nav}{\headcommand {\slideentry {2}{1}{1}{20/20}{Watermark embedding}{0}}}
\@writefile{nav}{\headcommand {\beamer@framepages {20}{20}}}
\@writefile{nav}{\headcommand {\slideentry {2}{1}{2}{21/21}{Watermark embedding}{0}}}
\@writefile{nav}{\headcommand {\beamer@framepages {21}{21}}}
\@writefile{nav}{\headcommand {\slideentry {2}{1}{3}{22/22}{Watermark embedding}{0}}}
\@writefile{nav}{\headcommand {\beamer@framepages {22}{22}}}
\@writefile{nav}{\headcommand {\slideentry {2}{1}{4}{23/25}{Watermark embedding}{0}}}
\@writefile{nav}{\headcommand {\beamer@framepages {23}{25}}}
\@writefile{nav}{\headcommand {\slideentry {2}{1}{5}{26/37}{Watermark embedding}{0}}}
\@writefile{nav}{\headcommand {\beamer@framepages {26}{37}}}
\@writefile{nav}{\headcommand {\slideentry {2}{1}{6}{38/38}{Watermark embedding}{0}}}
\@writefile{nav}{\headcommand {\beamer@framepages {38}{38}}}
\@writefile{toc}{\beamer@subsectionintoc {2}{2}{Watermark extraction}{39}{0}{2}}
\@writefile{nav}{\headcommand {\beamer@subsectionentry {0}{2}{2}{39}{Watermark extraction}}\headcommand {\beamer@subsectionpages {20}{38}}}
\@writefile{nav}{\headcommand {\slideentry {2}{2}{1}{39/39}{Watermark extraction}{0}}}
\@writefile{nav}{\headcommand {\beamer@framepages {39}{39}}}
\@writefile{nav}{\headcommand {\slideentry {2}{2}{2}{40/40}{Watermark extraction}{0}}}
\@writefile{nav}{\headcommand {\beamer@framepages {40}{40}}}
\@writefile{toc}{\beamer@sectionintoc {3}{Experimental results}{41}{0}{3}}
\@writefile{nav}{\headcommand {\sectionentry {3}{Experimental results}{41}{Experimental results}{0}}}
\@writefile{nav}{\headcommand {\beamer@sectionpages {20}{40}}}
\@writefile{nav}{\headcommand {\beamer@subsectionpages {39}{40}}}
\@writefile{nav}{\headcommand {\slideentry {3}{0}{3}{41/41}{}{0}}}
\@writefile{nav}{\headcommand {\beamer@framepages {41}{41}}}
\@writefile{nav}{\headcommand {\slideentry {3}{0}{4}{42/42}{}{0}}}
\@writefile{nav}{\headcommand {\beamer@framepages {42}{42}}}
\@writefile{nav}{\headcommand {\slideentry {3}{0}{5}{43/43}{}{0}}}
\@writefile{nav}{\headcommand {\beamer@framepages {43}{43}}}
\@writefile{nav}{\headcommand {\beamer@partpages {1}{43}}}
\@writefile{nav}{\headcommand {\beamer@subsectionpages {41}{43}}}
\@writefile{nav}{\headcommand {\beamer@sectionpages {41}{43}}}
\@writefile{nav}{\headcommand {\beamer@documentpages {43}}}
\@writefile{nav}{\headcommand {\def \inserttotalframenumber {15}}}
